[
{
"nombre":"Ham",
"coordx":11,
"coordy":2
},
{
"nombre":"Chiken",
"coordx":11,
"coordy":7
},
{
"nombre":"Beef",
"coordx":20,
"coordy":2
},
{
"nombre":"Eggs",
"coordx":24,
"coordy":2
},
{
"nombre":"Milk",
"coordx":28,
"coordy":2
},
{
"nombre":"Fish",
"coordx":4,
"coordy":5
},
{
"nombre":"Cereals",
"coordx":2,
"coordy":11
},
{
"nombre":"Flour",
"coordx":2,
"coordy":16
},
{
"nombre":"Cookies",
"coordx":17,
"coordy":16
},
{
"nombre":"Jam",
"coordx":18,
"coordy":16
},
{
"nombre":"Wine",
"coordx":39,
"coordy":8
},
{
"nombre":"Bread",
"coordx":39,
"coordy":17
},
{
"nombre":"Noodles",
"coordx":39,
"coordy":31
},
{
"nombre":"Prawns",
"coordx":23,
"coordy":27
},
{
"nombre":"Apple",
"coordx":6,
"coordy":21
},
{
"nombre":"Letucce",
"coordx":2,
"coordy":30
},
{
"nombre":"Onion",
"coordx":11,
"coordy":27
},
{
"nombre":"Flowers",
"coordx":4,
"coordy":29
}
]
